Effective Data Visualization with ggplot2
…
votes_long <- votes_2016 |>
  mutate(
    other = total_votes - votes_dem - votes_gop
  ) |>
  select(
    state, fips, democratic = votes_dem, republican = votes_gop, other
  ) |>
  pivot_longer(c(-state, -fips), names_to = "party", values_to = "votes")

votes_long

# A tibble: 9,423 × 4
   state fips  party       votes
   <chr> <chr> <chr>       <dbl>
 1 AK    02013 democratic  93003
 2 AK    02013 republican 130413
 3 AK    02013 other       23172
 4 AK    02016 democratic  93003
 5 AK    02016 republican 130413
 6 AK    02016 other       23172
 7 AK    02020 democratic  93003
 8 AK    02020 republican 130413
 9 AK    02020 other       23172
10 AK    02050 democratic  93003
# ℹ 9,413 more rows
…
