Visualizing Uncertainty and Trends
…
Let’s calculate uncertainties in the regression slopes and then visualize those.

lm_data <- gapminder |>
  nest(data = -c(continent, year)) |>
  mutate(
    fit = map(data, ~lm(lifeExp ~ log(gdpPercap), data = .x)),
    tidy_out = map(fit, tidy)
  ) |>
  unnest(cols = tidy_out) |>
  select(-data, -fit) |>
  filter(term != "(Intercept)", continent != "Oceania")

lm_data

# A tibble: 48 × 7
   continent  year term           estimate std.error statistic       p.value
   <fct>     <int> <chr>             <dbl>     <dbl>     <dbl>         <dbl>
 1 Asia       1952 log(gdpPercap)     4.16     1.25       3.33 0.00228      
 2 Asia       1957 log(gdpPercap)     4.17     1.28       3.26 0.00271      
 3 Asia       1962 log(gdpPercap)     4.59     1.24       3.72 0.000794     
 4 Asia       1967 log(gdpPercap)     4.50     1.15       3.90 0.000477     
 5 Asia       1972 log(gdpPercap)     4.44     1.01       4.41 0.000116     
 6 Asia       1977 log(gdpPercap)     4.87     1.03       4.75 0.0000442    
 7 Asia       1982 log(gdpPercap)     4.78     0.852      5.61 0.00000377   
 8 Asia       1987 log(gdpPercap)     5.17     0.727      7.12 0.0000000531 
 9 Asia       1992 log(gdpPercap)     5.09     0.649      7.84 0.00000000760
10 Asia       1997 log(gdpPercap)     5.11     0.628      8.15 0.00000000335
# ℹ 38 more rows
…
